[
  {
    "Id": 1,
    "Title": "England"
  },
  {
    "Id": 2,
    "Title": "Spain"
  },
  {
    "Id": 3,
    "Title": "Germany"
  },
  {
    "Id": 4,
    "Title": "Italy"
  },
  {
    "Id": 5,
    "Title": "France"
  },
  {
    "Id": 6,
    "Title": "Ireland"
  }
]
