[
  {
    "Id": 1,
    "Title": "Goals"
  },
  {
    "Id": 2,
    "Title": "Corners"
  },
  {
    "Id": 3,
    "Title": "ThrowIns"
  },
  {
    "Id": 4,
    "Title": "Fouls"
  },
  {
    "Id": 5,
    "Title": "Substitutions"
  },
  {
    "Id": 6,
    "Title": "YellowCards"
  },
  {
    "Id": 7,
    "Title": "RedCards"
  },
  {
    "Id": 8,
    "Title": "Bookings"
  },
  {
    "Id": 9,
    "Title": "Sets"
  },
  {
    "Id": 10,
    "Title": "Games"
  },
  {
    "Id": 11,
    "Title": "Points"
  },
  {
    "Id": 12,
    "Title": "Aces"
  },
  {
    "Id": 13,
    "Title": "DoubleFault"
  }
]